<?xml version="1.0" encoding="UTF-8" standalone="no"?>
<!-- Created with Inkscape (http://www.inkscape.org/) -->

<svg
   xmlns:osb="http://www.openswatchbook.org/uri/2009/osb"
   xmlns:dc="http://purl.org/dc/elements/1.1/"
   xmlns:cc="http://creativecommons.org/ns#"
   xmlns:rdf="http://www.w3.org/1999/02/22-rdf-syntax-ns#"
   xmlns:svg="http://www.w3.org/2000/svg"
   xmlns="http://www.w3.org/2000/svg"
   xmlns:xlink="http://www.w3.org/1999/xlink"
   xmlns:sodipodi="http://sodipodi.sourceforge.net/DTD/sodipodi-0.dtd"
   xmlns:inkscape="http://www.inkscape.org/namespaces/inkscape"
   width="1280"
   height="720"
   id="svg2"
   version="1.1"
   inkscape:version="0.48.4 r9939"
   sodipodi:docname="menu.svg"
   inkscape:export-filename="/home/remo/Desktop/Wasteland Menu.png"
   inkscape:export-xdpi="135"
   inkscape:export-ydpi="135">
  <defs
     id="defs4">
    <linearGradient
       id="linearGradient4091">
      <stop
         style="stop-color:#000000;stop-opacity:0.39215687;"
         offset="0"
         id="stop4093" />
      <stop
         style="stop-color:#000000;stop-opacity:0;"
         offset="1"
         id="stop4095" />
    </linearGradient>
    <linearGradient
       id="linearGradient3898"
       osb:paint="gradient">
      <stop
         style="stop-color:#c9b677;stop-opacity:1;"
         offset="0"
         id="stop3900" />
      <stop
         id="stop3906"
         offset="0.5"
         style="stop-color:#c9b677;stop-opacity:1;" />
      <stop
         style="stop-color:#c9b677;stop-opacity:0;"
         offset="1"
         id="stop3902" />
    </linearGradient>
    <linearGradient
       inkscape:collect="always"
       xlink:href="#linearGradient3898-3"
       id="linearGradient3904-1"
       x1="667"
       y1="771.66266"
       x2="667"
       y2="658.5"
       gradientUnits="userSpaceOnUse"
       gradientTransform="matrix(1.4705882,0,0,1.2820513,-184,119.05449)" />
    <linearGradient
       id="linearGradient3898-3">
      <stop
         style="stop-color:#c9b677;stop-opacity:1;"
         offset="0"
         id="stop3900-8" />
      <stop
         id="stop3906-3"
         offset="0.5"
         style="stop-color:#c9b677;stop-opacity:1;" />
      <stop
         style="stop-color:#c9b677;stop-opacity:0;"
         offset="1"
         id="stop3902-7" />
    </linearGradient>
    <linearGradient
       inkscape:collect="always"
       xlink:href="#linearGradient4091"
       id="linearGradient4097"
       x1="619.42554"
       y1="706.32526"
       x2="619.42554"
       y2="155.61256"
       gradientUnits="userSpaceOnUse"
       gradientTransform="matrix(1.0090264,0,0,1.0347904,-5.7079152,320.48381)" />
    <filter
       inkscape:collect="always"
       id="filter3787">
      <feGaussianBlur
         inkscape:collect="always"
         stdDeviation="2.1875"
         id="feGaussianBlur3789" />
    </filter>
    <filter
       inkscape:collect="always"
       id="filter4110"
       x="-0.24"
       width="1.48"
       y="-0.24"
       height="1.48">
      <feGaussianBlur
         inkscape:collect="always"
         stdDeviation="1.3"
         id="feGaussianBlur4112" />
    </filter>
  </defs>
  <sodipodi:namedview
     id="base"
     pagecolor="#ffffff"
     bordercolor="#666666"
     borderopacity="1.0"
     inkscape:pageopacity="0"
     inkscape:pageshadow="2"
     inkscape:zoom="1"
     inkscape:cx="733.73214"
     inkscape:cy="354.28912"
     inkscape:document-units="px"
     inkscape:current-layer="layer1"
     showgrid="false"
     inkscape:window-width="1855"
     inkscape:window-height="1056"
     inkscape:window-x="65"
     inkscape:window-y="24"
     inkscape:window-maximized="1"
     showborder="false"
     borderlayer="false"
     inkscape:showpageshadow="false" />
  <metadata
     id="metadata7">
    <rdf:RDF>
      <cc:Work
         rdf:about="">
        <dc:format>image/svg+xml</dc:format>
        <dc:type
           rdf:resource="http://purl.org/dc/dcmitype/StillImage" />
        <dc:title></dc:title>
      </cc:Work>
    </rdf:RDF>
  </metadata>
  <g
     inkscape:label="Ebene 1"
     inkscape:groupmode="layer"
     id="layer1"
     transform="translate(0,-332.36218)">
    <image
       sodipodi:absref="/home/remo/git/wasteland/wasteland/resources/./menu-background.jpg"
       xlink:href="./menu-background.jpg"
       width="1280"
       height="720"
       id="image3090"
       x="0"
       y="332.36218" />
    <rect
       style="fill:#1a1a1a;fill-opacity:1;fill-rule:evenodd;stroke:#333333;stroke-width:3.10112786;stroke-linecap:round;stroke-linejoin:miter;stroke-miterlimit:4;stroke-opacity:1;stroke-dasharray:none;filter:url(#filter3787)"
       id="rect3785"
       width="560"
       height="315"
       x="526.75"
       y="575.61218"
       transform="matrix(0.97633655,0,0,0.95852535,27.340489,52.155568)" />
    <flowRoot
       xml:space="preserve"
       id="flowRoot2984"
       style="font-size:40px;font-style:normal;font-variant:normal;font-weight:normal;font-stretch:normal;line-height:125%;letter-spacing:0px;word-spacing:0px;fill:#333333;fill-opacity:1;stroke:none;font-family:Michroma;-inkscape-font-specification:Michroma"
       transform="translate(44.32,270.03018)"><flowRegion
         id="flowRegion2986"><rect
           id="rect2988"
           width="204.81624"
           height="595.13708"
           x="104"
           y="238"
           style="fill:#333333;stroke:none" /></flowRegion><flowPara
         id="flowPara2992"
         style="font-size:56px;font-style:normal;font-variant:normal;font-weight:bold;font-stretch:normal;text-align:start;line-height:135.00000238000001218%;writing-mode:lr-tb;text-anchor:start;fill:#333333;stroke:none;font-family:Tangerine;-inkscape-font-specification:Tangerine Bold;stroke-opacity:1">Load</flowPara><flowPara
         id="flowPara2998"
         style="font-size:56px;font-style:normal;font-variant:normal;font-weight:bold;font-stretch:normal;line-height:135.00000238000001218%;fill:#333333;stroke:none;font-family:Tangerine;-inkscape-font-specification:Tangerine Bold">New</flowPara><flowPara
         id="flowPara3016"
         style="font-size:56px;font-style:normal;font-variant:normal;font-weight:bold;font-stretch:normal;line-height:135.00000238000001218%;fill:#333333;stroke:none;font-family:Tangerine;-inkscape-font-specification:Tangerine Bold">Settings</flowPara><flowPara
         id="flowPara3018"
         style="font-size:56px;font-style:normal;font-variant:normal;font-weight:bold;font-stretch:normal;line-height:135.00000238000001218%;fill:#333333;stroke:none;font-family:Tangerine;-inkscape-font-specification:Tangerine Bold">Help</flowPara><flowPara
         id="flowPara3020"
         style="font-size:56px;font-style:normal;font-variant:normal;font-weight:bold;font-stretch:normal;line-height:135.00000238000001218%;fill:#333333;stroke:none;font-family:Tangerine;-inkscape-font-specification:Tangerine Bold">About </flowPara><flowPara
         id="flowPara3024"
         style="font-size:56px;font-style:normal;font-variant:normal;font-weight:bold;font-stretch:normal;line-height:135.00000238000001218%;fill:#333333;stroke:none;font-family:Tangerine;-inkscape-font-specification:Tangerine Bold">Quit</flowPara></flowRoot>    <text
       xml:space="preserve"
       style="font-size:40px;font-style:normal;font-variant:normal;font-weight:normal;font-stretch:normal;line-height:125%;letter-spacing:0px;word-spacing:0px;fill:#333333;fill-opacity:1;stroke:#333333;stroke-width:1;stroke-miterlimit:4;stroke-opacity:1;stroke-dasharray:none;font-family:Michroma;-inkscape-font-specification:Michroma"
       x="140.064"
       y="472.36218"
       id="text2985"
       sodipodi:linespacing="125%"
       inkscape:export-xdpi="135"
       inkscape:export-ydpi="135"
       inkscape:export-filename="/home/remo/git/wasteland/wasteland/assets/Interface/menu/header-text.png"><tspan
         sodipodi:role="line"
         x="140.064"
         y="472.36218"
         id="tspan2989"
         style="font-size:144px;font-style:normal;font-variant:normal;font-weight:bold;font-stretch:normal;fill:#333333;fill-opacity:1;stroke:#333333;stroke-width:1;stroke-miterlimit:4;stroke-opacity:1;stroke-dasharray:none;font-family:Tangerine;-inkscape-font-specification:Tangerine Bold">Waste Land</tspan></text>
    <text
       xml:space="preserve"
       style="font-size:40px;font-style:normal;font-variant:normal;font-weight:normal;font-stretch:normal;line-height:125%;letter-spacing:0px;word-spacing:0px;fill:#333333;fill-opacity:1;stroke:none;font-family:Michroma;-inkscape-font-specification:Michroma"
       x="685.17249"
       y="961.91418"
       id="text3052"
       sodipodi:linespacing="125%"><tspan
         sodipodi:role="line"
         id="tspan3054"
         x="685.17249"
         y="961.91418"
         style="font-size:64px;font-style:normal;font-variant:normal;font-weight:normal;font-stretch:normal;font-family:Tangerine;-inkscape-font-specification:Tangerine;fill:#333333">14.2.2014 21:18</tspan></text>
    <path
       inkscape:connector-curvature="0"
       d="m 1112.2,704.50568 c 19.52,19.528 20.32,51.186 0.79,70.713 l 34.96,-34.961 -35.75,-35.752 z"
       id="path7"
       style="fill:#333333"
       inkscape:export-filename="/home/remo/Desktop/arrow-right.png"
       inkscape:export-xdpi="135"
       inkscape:export-ydpi="135" />
    <path
       inkscape:connector-curvature="0"
       d="m 485.75,704.50568 c -19.52,19.528 -20.32,51.186 -0.79,70.713 l -34.96,-34.961 35.75,-35.752 z"
       id="path11"
       style="fill:#333333;fill-opacity:1"
       inkscape:export-filename="/home/remo/Desktop/arrow-left.png"
       inkscape:export-xdpi="135"
       inkscape:export-ydpi="135" />
    <path
       style="fill:#333333;stroke:#333333;stroke-width:3;stroke-linecap:butt;stroke-linejoin:miter;stroke-miterlimit:4;stroke-opacity:1;stroke-dasharray:none"
       d="m 146.87537,578.60064 114.95699,0"
       id="path3880"
       inkscape:connector-curvature="0" />
    <text
       xml:space="preserve"
       style="font-size:40px;font-style:normal;font-variant:normal;font-weight:normal;font-stretch:normal;line-height:125%;letter-spacing:0px;word-spacing:0px;fill:#333333;fill-opacity:1;stroke:none;font-family:Michroma;-inkscape-font-specification:Michroma"
       x="1017.792"
       y="1024.5542"
       id="text3052-8"
       sodipodi:linespacing="125%"><tspan
         sodipodi:role="line"
         id="tspan3054-1"
         x="1017.792"
         y="1024.5542"
         style="font-size:32px;font-style:normal;font-variant:normal;font-weight:bold;font-stretch:normal;font-family:Tangerine;-inkscape-font-specification:Tangerine Bold;fill:#333333">Copyright Remo Arpagaus</tspan></text>
    <text
       xml:space="preserve"
       style="font-size:40px;font-style:normal;font-variant:normal;font-weight:normal;font-stretch:normal;line-height:125%;letter-spacing:0px;word-spacing:0px;fill:#333333;fill-opacity:1;stroke:none;font-family:Michroma;-inkscape-font-specification:Michroma"
       x="17.792"
       y="1032.3622"
       id="text3052-8-4"
       sodipodi:linespacing="125%"><tspan
         sodipodi:role="line"
         id="tspan3054-1-2"
         x="17.792"
         y="1032.3622"
         style="font-size:32px;font-style:normal;font-variant:normal;font-weight:bold;font-stretch:normal;font-family:Tangerine;-inkscape-font-specification:Tangerine Bold;fill:#333333">Wasteland 0.0.2</tspan></text>
    <path
       sodipodi:type="arc"
       style="fill:#333333;fill-opacity:1;fill-rule:evenodd;stroke:#333333;stroke-width:0.62064517;stroke-linecap:round;stroke-linejoin:miter;stroke-miterlimit:4;stroke-opacity:1;stroke-dasharray:none;filter:url(#filter4110)"
       id="path3788"
       sodipodi:cx="-250.5"
       sodipodi:cy="250.5"
       sodipodi:rx="6.5"
       sodipodi:ry="6.5"
       d="m -244,250.5 c 0,3.58985 -2.91015,6.5 -6.5,6.5 -3.58985,0 -6.5,-2.91015 -6.5,-6.5 0,-3.58985 2.91015,-6.5 6.5,-6.5 3.58985,0 6.5,2.91015 6.5,6.5 z"
       transform="matrix(1.6112266,0,0,1.6112266,326.51226,461.84992)"
       inkscape:export-filename="/home/remo/Desktop/shadow.png"
       inkscape:export-xdpi="89.980003"
       inkscape:export-ydpi="89.980003" />
    <rect
       style="fill:#f4eed7;fill-opacity:1;fill-rule:evenodd;stroke:none"
       id="rect3785-5"
       width="560"
       height="315"
       x="520"
       y="582.36218"
       inkscape:export-xdpi="134.85715"
       inkscape:export-ydpi="134.85715" />
    <text
       xml:space="preserve"
       style="font-size:144px;font-style:normal;font-variant:normal;font-weight:bold;font-stretch:normal;line-height:125%;letter-spacing:0px;word-spacing:0px;fill:#333333;fill-opacity:1;stroke:none;font-family:Arial;-inkscape-font-specification:Arial Bold"
       x="755.5625"
       y="791.92859"
       id="text3815"
       sodipodi:linespacing="125%"
       inkscape:export-filename="/home/remo/Desktop/rect3785-5.png"
       inkscape:export-xdpi="134.85715"
       inkscape:export-ydpi="134.85715"><tspan
         sodipodi:role="line"
         id="tspan3817"
         x="755.5625"
         y="791.92859">?</tspan></text>
  </g>
</svg>
